exp6/soc_verify/soc_dram/run_vivado/project/loongson.sim/sim_1/behav/xsim/dump.vcd
$date
   Wed Oct 29 20:00:18 2025
$end
$version
  2022.2
$end
$timescale
  1ps
$end
$scope module tb_top $end
$scope module soc_lite $end
$var wire 1 ! resetn $end
$var wire 1 " clk $end
$var wire 16 # led [15:0] $end
$var wire 2 $ led_rg0 [1:0] $end
$var wire 2 % led_rg1 [1:0] $end
$var wire 8 & num_csn [7:0] $end
$var wire 7 ' num_a_g [6:0] $end
$var wire 32 ( num_data [31:0] $end
$var wire 8 ) switch [7:0] $end
$var wire 4 * btn_key_col [3:0] $end
$var wire 4 + btn_key_row [3:0] $end
$var wire 2 , btn_step [1:0] $end
$var wire 32 - debug_wb_pc [31:0] $end
$var wire 4 . debug_wb_rf_we [3:0] $end
$var wire 5 / debug_wb_rf_wnum [4:0] $end
$var wire 32 0 debug_wb_rf_wdata [31:0] $end
$var wire 1 1 cpu_clk $end
$var wire 1 2 timer_clk $end
$var reg 1 3 cpu_resetn $end
$var wire 1 4 cpu_inst_we $end
$var wire 32 5 cpu_inst_addr [31:0] $end
$var wire 32 6 cpu_inst_wdata [31:0] $end
$var wire 32 7 cpu_inst_rdata [31:0] $end
$var wire 1 8 cpu_data_we $end
$var wire 32 9 cpu_data_addr [31:0] $end
$var wire 32 : cpu_data_wdata [31:0] $end
$var wire 32 ; cpu_data_rdata [31:0] $end
$var wire 1 < data_sram_en $end
$var wire 1 = data_sram_we $end
$var wire 32 > data_sram_addr [31:0] $end
$var wire 32 ? data_sram_wdata [31:0] $end
$var wire 32 @ data_sram_rdata [31:0] $end
$var wire 1 A conf_en $end
$var wire 1 B conf_we $end
$var wire 32 C conf_addr [31:0] $end
$var wire 32 D conf_wdata [31:0] $end
$var wire 32 E conf_rdata [31:0] $end
$scope module cpu $end
$var wire 1 1 clk $end
$var wire 1 F resetn $end
$var wire 1 4 inst_sram_we $end
$var wire 32 5 inst_sram_addr [31:0] $end
$var wire 32 6 inst_sram_wdata [31:0] $end
$var wire 32 7 inst_sram_rdata [31:0] $end
$var wire 1 8 data_sram_we $end
$var wire 32 9 data_sram_addr [31:0] $end
$var wire 32 : data_sram_wdata [31:0] $end
$var wire 32 ; data_sram_rdata [31:0] $end
$var wire 32 - debug_wb_pc [31:0] $end
$var wire 4 . debug_wb_rf_we [3:0] $end
$var wire 5 / debug_wb_rf_wnum [4:0] $end
$var wire 32 0 debug_wb_rf_wdata [31:0] $end
$var reg 1 G reset $end
$var reg 1 H valid $end
$var wire 32 I seq_pc [31:0] $end
$var wire 32 J nextpc [31:0] $end
$var wire 1 K rj_eq_rd $end
$var wire 1 L br_taken $end
$var wire 32 M br_target [31:0] $end
$var wire 32 N inst [31:0] $end
$var reg 32 O pc [31:0] $end
$var wire 12 P alu_op [11:0] $end
$var wire 1 Q load_op $end
$var wire 1 R src1_is_pc $end
$var wire 1 S src2_is_imm $end
$var wire 1 T res_from_mem $end
$var wire 1 U dst_is_r1 $end
$var wire 1 V gr_we $end
$var wire 1 W mem_we $end
$var wire 1 X src_reg_is_rd $end
$var wire 5 Y dest [4:0] $end
$var wire 32 Z rj_value [31:0] $end
$var wire 32 [ rkd_value [31:0] $end
$var wire 32 \ imm [31:0] $end
$var wire 32 ] br_offs [31:0] $end
$var wire 32 ^ jirl_offs [31:0] $end
$var wire 6 _ op_31_26 [5:0] $end
$var wire 4 ` op_25_22 [3:0] $end
$var wire 2 a op_21_20 [1:0] $end
$var wire 5 b op_19_15 [4:0] $end
$var wire 5 c rd [4:0] $end
$var wire 5 d rj [4:0] $end
$var wire 5 e rk [4:0] $end
$var wire 12 f i12 [11:0] $end
$var wire 20 g i20 [19:0] $end
$var wire 16 h i16 [15:0] $end
$var wire 26 i i26 [25:0] $end
$var wire 64 j op_31_26_d [63:0] $end
$var wire 16 k op_25_22_d [15:0] $end
$var wire 4 l op_21_20_d [3:0] $end
$var wire 32 m op_19_15_d [31:0] $end
$var wire 1 n inst_add_w $end
$var wire 1 o inst_sub_w $end
$var wire 1 p inst_slt $end
$var wire 1 q inst_sltu $end
$var wire 1 r inst_nor $end
$var wire 1 s inst_and $end
$var wire 1 t inst_or $end
$var wire 1 u inst_xor $end
$var wire 1 v inst_slli_w $end
$var wire 1 w inst_srli_w $end
$var wire 1 x inst_srai_w $end
$var wire 1 y inst_addi_w $end
$var wire 1 z inst_ld_w $end
$var wire 1 { inst_st_w $end
$var wire 1 | inst_jirl $end
$var wire 1 } inst_b $end
$var wire 1 ~ inst_bl $end
$var wire 1 !! inst_beq $end
$var wire 1 "! inst_bne $end
$var wire 1 #! inst_lu12i_w $end
$var wire 1 $! need_ui5 $end
$var wire 1 %! need_si12 $end
$var wire 1 &! need_si16 $end
$var wire 1 '! need_si20 $end
$var wire 1 (! need_si26 $end
$var wire 1 )! src2_is_4 $end
$var wire 5 *! rf_raddr1 [4:0] $end
$var wire 32 +! rf_rdata1 [31:0] $end
$var wire 5 ,! rf_raddr2 [4:0] $end
$var wire 32 -! rf_rdata2 [31:0] $end
$var wire 1 .! rf_we $end
$var wire 5 /! rf_waddr [4:0] $end
$var wire 32 0! rf_wdata [31:0] $end
$var wire 32 1! alu_src1 [31:0] $end
$var wire 32 2! alu_src2 [31:0] $end
$var wire 32 3! alu_result [31:0] $end
$var wire 32 4! mem_result [31:0] $end
$var wire 32 5! final_result [31:0] $end
$scope module u_dec0 $end
$var wire 6 _ in [5:0] $end
$var wire 64 j out [63:0] $end
$upscope $end
$scope module u_dec1 $end
$var wire 4 ` in [3:0] $end
$var wire 16 k out [15:0] $end
$upscope $end
$scope module u_dec2 $end
$var wire 2 a in [1:0] $end
$var wire 4 l out [3:0] $end
$upscope $end
$scope module u_dec3 $end
$var wire 5 b in [4:0] $end
$var wire 32 m out [31:0] $end
$upscope $end
$scope module u_regfile $end
$var wire 1 1 clk $end
$var wire 5 *! raddr1 [4:0] $end
$var wire 32 +! rdata1 [31:0] $end
$var wire 5 ,! raddr2 [4:0] $end
$var wire 32 -! rdata2 [31:0] $end
$var wire 1 .! we $end
$var wire 5 /! waddr [4:0] $end
$var wire 32 0! wdata [31:0] $end
$upscope $end
$scope module u_alu $end
$var wire 12 P alu_op [11:0] $end
$var wire 32 1! alu_src1 [31:0] $end
$var wire 32 2! alu_src2 [31:0] $end
$var wire 32 3! alu_result [31:0] $end
$var wire 1 6! op_add $end
$var wire 1 7! op_sub $end
$var wire 1 8! op_slt $end
$var wire 1 9! op_sltu $end
$var wire 1 :! op_and $end
$var wire 1 ;! op_nor $end
$var wire 1 <! op_or $end
$var wire 1 =! op_xor $end
$var wire 1 >! op_sll $end
$var wire 1 ?! op_srl $end
$var wire 1 @! op_sra $end
$var wire 1 A! op_lui $end
$var wire 32 B! add_sub_result [31:0] $end
$var wire 32 C! slt_result [31:0] $end
$var wire 32 D! sltu_result [31:0] $end
$var wire 32 E! and_result [31:0] $end
$var wire 32 F! nor_result [31:0] $end
$var wire 32 G! or_result [31:0] $end
$var wire 32 H! xor_result [31:0] $end
$var wire 32 I! lui_result [31:0] $end
$var wire 32 J! sll_result [31:0] $end
$var wire 64 K! sr64_result [63:0] $end
$var wire 32 L! sr_result [31:0] $end
$var wire 32 M! adder_a [31:0] $end
$var wire 32 N! adder_b [31:0] $end
$var wire 1 O! adder_cin $end
$var wire 32 P! adder_result [31:0] $end
$var wire 1 Q! adder_cout $end
$upscope $end
$upscope $end
$scope module inst_ram $end
$var wire 15 R! a [14:0] $end
$var wire 32 6 d [31:0] $end
$var wire 1 1 clk $end
$var wire 1 4 we $end
$var wire 32 7 spo [31:0] $end
$scope module inst $end
$var wire 15 R! a [14:0] $end
$var wire 32 6 d [31:0] $end
$var wire 15 S! dpra [14:0] $end
$var wire 1 1 clk $end
$var wire 1 4 we $end
$var wire 1 T! i_ce $end
$var wire 1 U! qspo_ce $end
$var wire 1 V! qdpo_ce $end
$var wire 1 W! qdpo_clk $end
$var wire 1 X! qspo_rst $end
$var wire 1 Y! qdpo_rst $end
$var wire 1 Z! qspo_srst $end
$var wire 1 [! qdpo_srst $end
$var wire 32 7 spo [31:0] $end
$var wire 32 \! qspo [31:0] $end
$var wire 32 ]! dpo [31:0] $end
$var wire 32 ^! qdpo [31:0] $end
$var wire 15 _! a_int [14:0] $end
$var wire 32 `! d_int [31:0] $end
$var wire 1 a! we_int $end
$var wire 1 b! qspo_ce_int $end
$var wire 1 c! qdpo_clk_int $end
$var wire 15 d! dpra_int [14:0] $end
$var wire 1 e! qdpo_ce_int $end
$var reg 1 f! we_reg $end
$var reg 15 g! a_reg [14:0] $end
$var reg 32 h! d_reg [31:0] $end
$var reg 1 i! qspo_ce_reg $end
$var reg 15 j! dpra_reg [14:0] $end
$var reg 1 k! qdpo_ce_reg $end
$var wire 32 l! spo_int [31:0] $end
$var wire 32 m! dpo_int [31:0] $end
$var reg 32 n! qspo_int [31:0] $end
$var reg 32 o! qspo_pipe [31:0] $end
$var reg 32 p! qdpo_int [31:0] $end
$var reg 32 q! qdpo_pipe [31:0] $end
$var reg 32 r! default_data [31:0] $end
$var wire 32 s! data_sp [31:0] $end
$var wire 32 t! data_dp [31:0] $end
$var wire 32 u! data_sp_over [31:0] $end
$var wire 32 v! data_dp_over [31:0] $end
$var wire 15 w! a_over [14:0] $end
$var wire 15 x! dpra_over [14:0] $end
$var wire 1 y! a_is_over $end
$var wire 1 z! dpra_is_over $end
$var reg 15 {! max_address [14:0] $end
$var integer 32 |! i [31:0] $end
$var integer 32 }! j [31:0] $end
$scope function binstr_conv $end
$var reg 32 ~! binstr_conv [31:0] $end
$var reg 256 !" def_data [255:0] $end
$var integer 32 "" index [31:0] $end
$var integer 32 #" i [31:0] $end
$upscope $end
$upscope $end
$upscope $end
$scope module bridge_1x2 $end
$var wire 1 1 clk $end
$var wire 1 $" resetn $end
$var wire 1 8 cpu_data_we $end
$var wire 32 9 cpu_data_addr [31:0] $end
$var wire 32 : cpu_data_wdata [31:0] $end
$var wire 32 ; cpu_data_rdata [31:0] $end
$var wire 1 < data_sram_en $end
$var wire 1 = data_sram_we $end
$var wire 32 > data_sram_addr [31:0] $end
$var wire 32 ? data_sram_wdata [31:0] $end
$var wire 32 @ data_sram_rdata [31:0] $end
$var wire 1 A conf_en $end
$var wire 1 B conf_we $end
$var wire 32 C conf_addr [31:0] $end
$var wire 32 D conf_wdata [31:0] $end
$var wire 32 E conf_rdata [31:0] $end
$var wire 1 %" sel_sram $end
$var wire 1 &" sel_conf $end
$upscope $end
$scope module data_ram $end
$var wire 10 '" a [9:0] $end
$var wire 32 ? d [31:0] $end
$var wire 1 1 clk $end
$var wire 1 (" we $end
$var wire 32 @ spo [31:0] $end
$scope module inst $end
$var wire 10 '" a [9:0] $end
$var wire 32 ? d [31:0] $end
$var wire 10 )" dpra [9:0] $end
$var wire 1 1 clk $end
$var wire 1 (" we $end
$var wire 1 *" i_ce $end
$var wire 1 +" qspo_ce $end
$var wire 1 ," qdpo_ce $end
$var wire 1 -" qdpo_clk $end
$var wire 1 ." qspo_rst $end
$var wire 1 /" qdpo_rst $end
$var wire 1 0" qspo_srst $end
$var wire 1 1" qdpo_srst $end
$var wire 32 @ spo [31:0] $end
$var wire 32 2" qspo [31:0] $end
$var wire 32 3" dpo [31:0] $end
$var wire 32 4" qdpo [31:0] $end
$var wire 10 5" a_int [9:0] $end
$var wire 32 6" d_int [31:0] $end
$var wire 1 7" we_int $end
$var wire 1 8" qspo_ce_int $end
$var wire 1 9" qdpo_clk_int $end
$var wire 10 :" dpra_int [9:0] $end
$var wire 1 ;" qdpo_ce_int $end
$var reg 1 <" we_reg $end
$var reg 10 =" a_reg [9:0] $end
$var reg 32 >" d_reg [31:0] $end
$var reg 1 ?" qspo_ce_reg $end
$var reg 10 @" dpra_reg [9:0] $end
$var reg 1 A" qdpo_ce_reg $end
$var wire 32 B" spo_int [31:0] $end
$var wire 32 C" dpo_int [31:0] $end
$var reg 32 D" qspo_int [31:0] $end
$var reg 32 E" qspo_pipe [31:0] $end
$var reg 32 F" qdpo_int [31:0] $end
$var reg 32 G" qdpo_pipe [31:0] $end
$var reg 32 H" default_data [31:0] $end
$var wire 32 I" data_sp [31:0] $end
$var wire 32 J" data_dp [31:0] $end
$var wire 32 K" data_sp_over [31:0] $end
$var wire 32 L" data_dp_over [31:0] $end
$var wire 10 M" a_over [9:0] $end
$var wire 10 N" dpra_over [9:0] $end
$var wire 1 O" a_is_over $end
$var wire 1 P" dpra_is_over $end
$var reg 10 Q" max_address [9:0] $end
$var integer 32 R" i [31:0] $end
$var integer 32 S" j [31:0] $end
$scope function binstr_conv $end
$var reg 32 T" binstr_conv [31:0] $end
$var reg 256 U" def_data [255:0] $end
$var integer 32 V" index [31:0] $end
$var integer 32 W" i [31:0] $end
$upscope $end
$upscope $end
$upscope $end
$scope module u_confreg $end
$var wire 1 1 clk $end
$var wire 1 2 timer_clk $end
$var wire 1 X" resetn $end
$var wire 1 A conf_en $end
$var wire 1 B conf_we $end
$var wire 32 C conf_addr [31:0] $end
$var wire 32 D conf_wdata [31:0] $end
$var wire 32 E conf_rdata [31:0] $end
$var wire 16 # led [15:0] $end
$var wire 2 $ led_rg0 [1:0] $end
$var wire 2 % led_rg1 [1:0] $end
$var reg 8 Y" num_csn [7:0] $end
$var reg 7 Z" num_a_g [6:0] $end
$var reg 32 [" num_data [31:0] $end
$var wire 8 ) switch [7:0] $end
$var wire 4 * btn_key_col [3:0] $end
$var wire 4 + btn_key_row [3:0] $end
$var wire 2 , btn_step [1:0] $end
$var reg 32 \" cr0 [31:0] $end
$var reg 32 ]" cr1 [31:0] $end
$var reg 32 ^" cr2 [31:0] $end
$var reg 32 _" cr3 [31:0] $end
$var reg 32 `" cr4 [31:0] $end
$var reg 32 a" cr5 [31:0] $end
$var reg 32 b" cr6 [31:0] $end
$var reg 32 c" cr7 [31:0] $end
$var reg 32 d" led_data [31:0] $end
$var reg 32 e" led_rg0_data [31:0] $end
$var reg 32 f" led_rg1_data [31:0] $end
$var wire 32 g" switch_data [31:0] $end
$var wire 32 h" sw_inter_data [31:0] $end
$var wire 32 i" btn_key_data [31:0] $end
$var wire 32 j" btn_step_data [31:0] $end
$var reg 8 k" confreg_uart_data [7:0] $end
$var reg 1 l" confreg_uart_valid $end
$var reg 32 m" timer_r2 [31:0] $end
$var reg 32 n" simu_flag [31:0] $end
$var reg 32 o" io_simu [31:0] $end
$var reg 8 p" virtual_uart_data [7:0] $end
$var reg 1 q" open_trace $end
$var reg 1 r" num_monitor $end
$var wire 1 s" conf_write $end
$var wire 1 t" write_cr0 $end
$var wire 1 u" write_cr1 $end
$var wire 1 v" write_cr2 $end
$var wire 1 w" write_cr3 $end
$var wire 1 x" write_cr4 $end
$var wire 1 y" write_cr5 $end
$var wire 1 z" write_cr6 $end
$var wire 1 {" write_cr7 $end
$var reg 1 |" write_timer_begin $end
$var reg 1 }" write_timer_begin_r1 $end
$var reg 1 ~" write_timer_begin_r2 $end
$var reg 1 !# write_timer_begin_r3 $end
$var reg 1 "# write_timer_end_r1 $end
$var reg 1 ## write_timer_end_r2 $end
$var reg 32 $# conf_wdata_r [31:0] $end
$var reg 32 %# conf_wdata_r1 [31:0] $end
$var reg 32 &# conf_wdata_r2 [31:0] $end
$var reg 32 '# timer_r1 [31:0] $end
$var reg 32 (# timer [31:0] $end
$var wire 1 )# write_timer $end
$var wire 1 *# write_io_simu $end
$var wire 1 +# write_open_trace $end
$var wire 1 ,# write_num_monitor $end
$var wire 8 -# write_uart_data [7:0] $end
$var wire 1 .# write_uart_valid $end
$var wire 1 /# write_led $end
$var reg 16 0# btn_key_r [15:0] $end
$var reg 3 1# state [2:0] $end
$var wire 3 2# next_state [2:0] $end
$var reg 1 3# key_flag $end
$var reg 20 4# key_count [19:0] $end
$var reg 4 5# state_count [3:0] $end
$var wire 1 6# key_start $end
$var wire 1 7# key_end $end
$var wire 1 8# key_sample $end
$var wire 16 9# btn_key_tmp [15:0] $end
$var reg 1 :# btn_step0_r $end
$var reg 1 ;# btn_step1_r $end
$var reg 1 <# step0_flag $end
$var reg 20 =# step0_count [19:0] $end
$var wire 1 ># step0_start $end
$var wire 1 ?# step0_end $end
$var wire 1 @# step0_sample $end
$var reg 1 A# step1_flag $end
$var reg 20 B# step1_count [19:0] $end
$var wire 1 C# step1_start $end
$var wire 1 D# step1_end $end
$var wire 1 E# step1_sample $end
$var wire 1 F# write_led_rg0 $end
$var wire 1 G# write_led_rg1 $end
$var wire 1 H# write_num $end
$var reg 20 I# count [19:0] $end
$var reg 4 J# scan_data [3:0] $end
$upscope $end
$upscope $end
$upscope $end
$enddefinitions $end
#0
$dumpvars
0!
x!!
b0 !"
x!#
0"
x"!
b10 ""
x"#
bx #
x#!
b11111111111111111111111111111110 #"
x##
bx $
x$!
x$"
bx $#
bx %
x%!
x%"
bx %#
bx &
x&!
x&"
bx &#
bx '
x'!
bx '"
bx '#
bx (
x(!
x("
bx (#
b11111111 )
x)!
b0 )"
x)#
bx *
bx *!
1*"
x*#
b0 +
bx +!
1+"
x+#
b11 ,
bx ,!
1,"
x,#
bx -
bx -!
0-"
bx -#
bx .
x.!
0."
x.#
bx /
bx /!
0/"
x/#
bx 0
bx 0!
00"
bx 0#
01
bx 1!
01"
bx 1#
02
bx 2!
bx 2"
bx 2#
x3
bx 3!
bx 3"
x3#
04
bx 4!
bx 4"
bx 4#
bx 5
bx 5!
bx 5"
bx 5#
b0 6
x6!
bx 6"
x6#
bx 7
x7!
x7"
07#
x8
x8!
08"
x8#
bx 9
x9!
09"
b0 9#
bx :
x:!
b0 :"
x:#
bx ;
x;!
0;"
x;#
x<
x<!
0<"
x<#
x=
x=!
b0 ="
bx =#
bx >
x>!
b0 >"
0>#
bx ?
x?!
0?"
x?#
bx @
x@!
b0 @"
x@#
xA
xA!
0A"
xA#
xB
bx B!
bx B"
bx B#
bx C
b0x C!
bx C"
0C#
bx D
b0x D!
b0 D"
xD#
bx E
bx E!
b0 E"
xE#
xF
bx F!
b0 F"
xF#
xG
bx G!
b0 G"
xG#
xH
bx H!
b0 H"
xH#
bx I
bx I!
bx I"
bx I#
bx J
bx J!
b1001100000000000000000000100000 J"
bx J#
xK
bx K!
bx K"
xL
bx L!
bx L"
bx M
bx M!
bx M"
bx N
bx N!
b0 N"
bx O
xO!
xO"
bx P
bx P!
0P"
zQ
xQ!
b1111111111 Q"
xR
bx R!
b10000000000 R"
xS
b0 S!
bx S"
xT
1T!
b0 T"
xU
1U!
b0 U"
xV
1V!
b10 V"
xW
0W!
b11111111111111111111111111111110 W"
xX
0X!
xX"
bx Y
0Y!
bx Y"
bx Z
0Z!
bx Z"
bx [
0[!
bx ["
bx \
bx \!
bx \"
bx00 ]
bx ]!
bx ]"
bx00 ^
bx ^!
bx ^"
bx _
bx _!
bx _"
bx `
b0 `!
bx `"
bx a
0a!
bx a"
bx b
0b!
bx b"
bx c
0c!
bx c"
bx d
b0 d!
bx d"
bx e
0e!
bx e"
bx f
0f!
bx f"
bx g
b0 g!
b11111111 g"
bx h
b0 h!
b1010101010101010 h"
bx i
0i!
b0xxxxxxxxxxxxxxxx i"
bx j
b0 j!
b0xx j"
bx k
0k!
bx k"
bx l
bx l!
xl"
bx m
bx m!
bx m"
xn
b0 n!
bx n"
xo
b0 o!
bx o"
xp
b0 p!
bx p"
xq
b0 q!
xq"
xr
b0 r!
xr"
xs
bx s!
xs"
xt
b10101111111111110000001100 t!
xt"
xu
bx u!
xu"
xv
bx v!
xv"
xw
bx w!
xw"
xx
b0 x!
xx"
xy
xy!
xy"
xz
0z!
xz"
x{
b111111111111111 {!
x{"
x|
b1000000000000000 |!
x|"
x}
bx }!
x}"
x~
b0 ~!
x~"
$end
#5000
1"
0$"
x.!
11
12
03
x8
0F
1H
xL
0X"
#5100
x<"
bx ="
bx >"
1?"
bx D"
bx E"
bx g!
1i!
bx n!
bx o!
#10000
0"
01
02
#15000
1"
b0 #
b0 $
b0 %
b11111111 &
b0 '
b0 (
b0 (#
b0 *
b0 0#
11
b0 1#
12
b0 2#
03#
b0 4#
b0 5#
16#
08#
1:#
1;#
0<#
b0 =#
0?#
0@#
0A#
b0 B#
0D#
bx E
0E#
1G
b0 I#
b0 J#
b11111111 Y"
b0 Z"
b0 ["
b0 \"
b0 ]"
b0 ^"
b0 _"
b0 `"
b0 a"
b0 b"
b0 c"
b0 d"
b0 e"
b0 f"
b0 i"
b0 j"
b0 k"
0l"
b11111111111111111111111111111111 n"
b0 o"
b0 p"
1q"
1r"
0|"
#20000
0"
01
02
#25000
0!!
1"
0"!
0#!
0$!
0%!
1%"
0&!
0&"
0'!
b0 '"
b0 '#
0(!
0("
0)!
0)#
b0 *!
0*#
b0 +!
0+#
b0 ,!
0,#
b11011111111111111111111111100 -
b0 -!
b0 -#
b0 .
0.!
0.#
b0 /
b0 /!
0/#
b0 0
b0 0!
11
b0 1!
12
b0 2!
b0 3!
b1001100000000000000000000100000 4!
b11011111111111111111111111100 5
b0 5!
b0 5"
06!
b0 6"
b0 7
07!
07"
08
08!
b0 9
09!
b0 :
0:!
b1001100000000000000000000100000 ;
0;!
1<
0<!
0=
0=!
b0 >
0>!
b0 ?
0?!
b1001100000000000000000000100000 @
0@!
0A
0A!
0B
b0 B!
b1001100000000000000000000100000 B"
b0 C
b0 C!
b0 D
b1 D!
b0 E
b0 E!
b11111111111111111111111111111111 F!
0F#
b0 G!
0G#
0H
b0 H!
0H#
b11100000000000000000000000000 I
b0 I!
b1001100000000000000000000100000 I"
b11100000000000000000000000000 J
b0 J!
1K
b0 K!
0L
b0 L!
b11011111111111111111111111100 M
b0 M!
b0 M"
b0 N
b0 N!
b11011111111111111111111111100 O
0O!
0O"
b0 P
b0 P!
0Q!
0R
b111111111111111 R!
0S
0T
0U
1V
0W
0X
b0 Y
b0 Z
b0 [
b0 \
b0 ]
b0 ^
b0 _
b111111111111111 _!
b0 `
b0 a
b0 b
b0 c
b0 d
b0 e
b0 f
b0 g
b0 h
b0 i
b1 j
b1 k
b1 l
b0 l!
b1 m
0n
0o
0p
0q
0r
0s
b0 s!
0s"
0t
0t"
0u
0u"
0v
0v"
0w
b111111111111111 w!
0w"
0x
0x"
0y
0y!
0y"
0z
0z"
0{
0{"
0|
0}
0}"
0~
#30000
0"
01
02
#35000
1"
11
12
b0 E
b0 m"
0~"
#35100
0<"
b0 ="
b0 >"
b1001100000000000000000000100000 D"
b1001100000000000000000000100000 E"
b111111111111111 g!
b0 n!
b0 o!
#40000
0"
01
02
#45000
0!#
1"
0"#
11
12
#50000
0"
01
02
#55000
1"
0##
11
12
